Pabro,1,6492,46,19,27,6
Pabro,2,8143,54,16,19,6
Pabro,3,10938,80,26,58,13
Pabro,4,7982,54,17,28,6
Pabro,5,7982,54,17,28,6
Pabro,6,8012,54,17,28,6
Pabro,7,10974,80,26,58,13
Pabro,8,7982,54,17,28,6
Pabro,9,7982,54,17,28,6
Pabro,10,8012,54,17,28,6
Pabro,11,10974,80,26,58,13
Pabro,12,7982,54,17,28,6
Pabro,13,7982,54,17,28,6
Pabro,14,8012,54,17,28,6
