Buffers,1,9636,72,27,29,12
Buffers,2,9273,64,19,36,13
Buffers,3,9523,66,19,35,12
Buffers,4,13362,104,37,60,17
Buffers,5,10412,74,20,45,17
Buffers,6,10469,76,19,54,16
Buffers,7,13053,100,33,57,18
Buffers,8,17252,140,56,85,24
Buffers,9,11514,86,22,55,17
Buffers,10,10969,82,22,55,15
Buffers,11,11249,84,22,54,14
Buffers,12,14598,116,37,78,21
Buffers,13,14756,112,38,70,24
