Pabro,1,6472,46,19,27,6
Cabro,1,4588,30,11,21,4
Buffers,1,9636,72,27,29,12
Pabro,2,8133,54,16,19,6
Cabro,2,7472,52,18,28,7
Buffers,2,9273,64,20,36,13
Pabro,3,10873,80,26,58,13
Cabro,3,7115,50,16,34,8
Buffers,3,9523,66,20,35,12
Pabro,4,7962,54,17,28,6
Cabro,4,7115,50,16,34,8
Buffers,4,13555,104,40,60,17
Pabro,5,7962,54,17,28,6
Cabro,5,7115,50,16,34,8
Buffers,5,10412,74,20,45,17
Pabro,6,7992,54,17,28,6
Cabro,6,7115,50,16,34,8
Buffers,6,10486,76,22,54,16
Pabro,7,10909,80,26,58,13
Cabro,7,7115,50,16,34,8
Buffers,7,13245,100,36,57,18
Pabro,8,7962,54,17,28,6
Cabro,8,7115,50,16,34,8
Buffers,8,17257,140,58,85,24
Pabro,9,7962,54,17,28,6
Cabro,9,7115,50,16,34,8
Buffers,9,11701,86,25,55,17
Pabro,10,7992,54,17,28,6
Cabro,10,8434,66,23,47,12
Buffers,10,10986,82,26,55,15
Pabro,11,10909,80,26,58,13
Cabro,11,6626,44,13,23,5
Buffers,11,11266,84,25,54,14
Pabro,12,7962,54,17,28,6
Cabro,12,8849,66,18,47,12
Buffers,12,14791,116,40,78,21
Pabro,13,7962,54,17,28,6
Cabro,13,7115,50,16,34,8
Buffers,13,15156,112,40,70,24
Pabro,14,7992,54,17,28,6
