KiteControl,1,5103,36,11,28,5
KiteControl,2,7033,48,14,28,2
KiteControl,3,7033,48,14,28,2
KiteControl,4,8796,68,18,48,7
KiteControl,5,214687,476,124,35,17
KiteControl,6,5731,40,13,28,2
KiteControl,7,7033,48,14,28,2
KiteControl,8,7033,48,14,28,2
KiteControl,9,7033,48,14,28,2
KiteControl,10,8836,68,18,48,7
KiteControl,11,118318,330,78,35,17
KiteControl,12,5731,40,13,28,2
