Wind,1,36250,422,65,174,15
Craft,1,36628,426,65,176,15
KiteControl,1,5083,36,11,28,5
Wind,2,43878,504,73,219,20
Craft,2,25294,272,36,111,13
KiteControl,2,6993,48,14,28,2
Wind,3,50247,564,95,260,29
Craft,3,32541,340,70,162,19
KiteControl,3,6993,48,14,28,2
Wind,4,45056,516,77,230,22
Craft,4,45787,524,77,234,22
KiteControl,4,8726,68,18,48,7
Wind,5,45050,516,77,230,22
Craft,5,45835,524,77,234,22
KiteControl,5,214672,476,124,35,17
Wind,6,45083,516,77,230,22
Craft,6,45860,524,77,234,22
KiteControl,6,5691,40,13,28,2
Wind,7,51269,600,84,268,24
Craft,7,33522,372,48,162,17
KiteControl,7,6993,48,14,28,2
Wind,8,43966,504,73,219,20
Craft,8,44744,512,73,223,21
KiteControl,8,6993,48,14,28,2
Wind,9,50282,564,95,260,29
Craft,9,51099,572,95,264,29
KiteControl,9,6993,48,14,28,2
Wind,10,45054,516,77,230,22
Craft,10,45835,524,77,234,22
KiteControl,10,8766,68,18,48,7
Wind,11,45054,516,77,230,22
Craft,11,45830,524,77,234,22
KiteControl,11,118303,330,78,35,17
Wind,12,45085,516,77,230,22
Craft,12,26500,284,40,122,15
KiteControl,12,5691,40,13,28,2
Wind,13,51265,600,84,268,24
Craft,13,33839,380,60,172,14
