runner,1,2785,26,5,9,0
runner,2,6285,52,11,37,7
runner,3,6910,58,11,46,9
runner,4,6910,58,11,46,9
runner,5,6910,58,11,46,9
runner,6,6910,58,11,46,9
runner,7,6910,58,11,46,9
runner,8,6910,58,11,46,9
runner,9,6910,58,11,46,9
runner,10,6910,58,11,46,9
runner,11,6910,58,11,46,9
runner,12,6910,58,11,46,9
runner,13,6910,58,11,46,9
runner,14,6910,58,11,46,9
runner,15,6910,58,11,46,9
runner,16,6910,58,11,46,9
runner,17,6910,58,11,46,9
runner,18,6910,58,11,46,9
runner,19,6910,58,11,46,9
runner,20,6910,58,11,46,9
runner,21,6910,58,11,46,9
runner,22,6910,58,11,46,9
runner,23,6910,58,11,46,9
runner,24,6910,58,11,46,9
runner,25,6910,58,11,46,9
runner,26,6910,58,11,46,9
runner,27,6910,58,11,46,9
runner,28,6910,58,11,46,9
runner,29,6910,58,11,46,9
runner,30,6910,58,11,46,9
runner,31,6910,58,11,46,9
runner,32,6910,58,11,46,9
runner,33,6910,58,11,46,9
runner,34,6910,58,11,46,9
runner,35,6910,58,11,46,9
runner,36,6910,58,11,46,9
runner,37,6910,58,11,46,9
runner,38,6910,58,11,46,9
runner,39,6910,58,11,46,9
runner,40,6910,58,11,46,9
runner,41,6910,58,11,46,9
runner,42,6910,58,11,46,9
runner,43,6910,58,11,46,9
runner,44,6910,58,11,46,9
runner,45,6910,58,11,46,9
runner,46,6910,58,11,46,9
runner,47,6910,58,11,46,9
