OsNode,1,4013,24,8,22,5
UserNode,1,7538,62,19,29,8
OsNode,2,5358,34,9,22,2
UserNode,2,14539,122,48,71,18
OsNode,3,5358,34,9,22,2
UserNode,3,10578,74,22,41,5
OsNode,4,7715,54,15,42,6
UserNode,4,10578,74,22,41,5
OsNode,5,6859,52,19,29,6
UserNode,5,10638,74,22,41,5
OsNode,6,3384,18,6,11,1
UserNode,6,11585,88,31,54,13
OsNode,7,3384,18,6,11,1
UserNode,7,9293,74,22,31,9
OsNode,8,3415,18,6,11,1
UserNode,8,15044,126,51,79,20
OsNode,9,4185,26,8,22,2
UserNode,9,4144,32,10,28,7
OsNode,10,7755,54,15,42,6
OsNode,11,5008,38,12,23,5
OsNode,12,5613,36,15,23,4
OsNode,13,3384,18,7,11,1
OsNode,14,3384,18,7,11,1
OsNode,15,3384,18,7,11,1
OsNode,16,3384,18,7,11,1
OsNode,17,3384,18,7,11,1
OsNode,18,3384,18,7,11,1
OsNode,19,3384,18,7,11,1
OsNode,20,3384,18,7,11,1
OsNode,21,3384,18,7,11,1
OsNode,22,3384,18,7,11,1
OsNode,23,3384,18,7,11,1
OsNode,24,3384,18,7,11,1
OsNode,25,3384,18,7,11,1
OsNode,26,3384,18,7,11,1
OsNode,27,3384,18,7,11,1
OsNode,28,3384,18,7,11,1
OsNode,29,3384,18,7,11,1
OsNode,30,3384,18,7,11,1
OsNode,31,3384,18,7,11,1
OsNode,32,3384,18,7,11,1
OsNode,33,3384,18,7,11,1
